\relax 
\providecommand\hyper@newdestlabel[2]{}
\providecommand\HyperFirstAtBeginDocument{\AtBeginDocument}
\HyperFirstAtBeginDocument{\ifx\hyper@anchor\@undefined
\global\let\oldcontentsline\contentsline
\gdef\contentsline#1#2#3#4{\oldcontentsline{#1}{#2}{#3}}
\global\let\oldnewlabel\newlabel
\gdef\newlabel#1#2{\newlabelxx{#1}#2}
\gdef\newlabelxx#1#2#3#4#5#6{\oldnewlabel{#1}{{#2}{#3}}}
\AtEndDocument{\ifx\hyper@anchor\@undefined
\let\contentsline\oldcontentsline
\let\newlabel\oldnewlabel
\fi}
\fi}
\global\let\hyper@last\relax 
\gdef\HyperFirstAtBeginDocument#1{#1}
\providecommand\HyField@AuxAddToFields[1]{}
\providecommand\HyField@AuxAddToCoFields[2]{}
\@writefile{toc}{\contentsline {section}{\numberline {1}Problem}{1}{section.1}}
\providecommand*\caption@xref[2]{\@setref\relax\@undefined{#1}}
\newlabel{walking1}{{\caption@xref {walking1}{ on input line 59}}{1}{Problem}{figure.caption.1}{}}
\@writefile{lof}{\contentsline {figure}{\numberline {1}{\ignorespaces Solidworks model of walking mechanism\relax }}{1}{figure.caption.1}}
\newlabel{torso1}{{\caption@xref {torso1}{ on input line 69}}{2}{Problem}{figure.caption.2}{}}
\@writefile{lof}{\contentsline {figure}{\numberline {2}{\ignorespaces Solidworks model of torso's weight-shifting mechanism\relax }}{2}{figure.caption.2}}
\@writefile{lof}{\contentsline {figure}{\numberline {3}{\ignorespaces MATLAB$^{\text  {$\mathsurround \z@ \mathchar "472$}}$-produced graph of walking and weight-shifting synchronization\relax }}{2}{figure.caption.3}}
\newlabel{movement}{{3}{2}{MATLAB$^{\circledR }$-produced graph of walking and weight-shifting synchronization\relax }{figure.caption.3}{}}
\@writefile{toc}{\contentsline {section}{\numberline {2}Solution}{3}{section.2}}
\@writefile{toc}{\contentsline {subsection}{\numberline {2.1}Kinematics Modeling}{3}{subsection.2.1}}
\@writefile{toc}{\contentsline {subsubsection}{\numberline {2.1.1}Nomenclature}{3}{subsubsection.2.1.1}}
\@writefile{toc}{\contentsline {subsubsection}{\numberline {2.1.2}Choosing Speeds}{4}{subsubsection.2.1.2}}
\newlabel{torsospec}{{\caption@xref {torsospec}{ on input line 167}}{5}{Choosing Speeds}{figure.caption.4}{}}
\@writefile{lof}{\contentsline {figure}{\numberline {4}{\ignorespaces MATLAB$^{\text  {$\mathsurround \z@ \mathchar "472$}}$-produced graph of varying masses in the weight-shifting mechanism and their respective operating curves\relax }}{5}{figure.caption.4}}
\@writefile{toc}{\contentsline {subsection}{\numberline {2.2}Motor Mechanics}{6}{subsection.2.2}}
\newlabel{dcmotor_electrical}{{\caption@xref {dcmotor_electrical}{ on input line 189}}{6}{Motor Mechanics}{figure.caption.5}{}}
\@writefile{lof}{\contentsline {figure}{\numberline {5}{\ignorespaces Electrical circuit within a simple DC motor\relax }}{6}{figure.caption.5}}
\@writefile{toc}{\contentsline {subsection}{\numberline {2.3}Component and Parameter Specifications}{7}{subsection.2.3}}
\@writefile{toc}{\contentsline {subsection}{\numberline {2.4}Controller Design}{7}{subsection.2.4}}
\@writefile{toc}{\contentsline {subsubsection}{\numberline {2.4.1}FeedForward Control}{7}{subsubsection.2.4.1}}
\newlabel{DCMblock1}{{\caption@xref {DCMblock1}{ on input line 247}}{7}{FeedForward Control}{figure.caption.6}{}}
\@writefile{lof}{\contentsline {figure}{\numberline {6}{\ignorespaces Simulink diagram of the DC motor's dynamics\relax }}{7}{figure.caption.6}}
\newlabel{feedforward}{{\caption@xref {feedforward}{ on input line 254}}{8}{FeedForward Control}{figure.caption.7}{}}
\@writefile{lof}{\contentsline {figure}{\numberline {7}{\ignorespaces Simulink diagram of a simple feedforward model\relax }}{8}{figure.caption.7}}
\newlabel{feedforwardplot}{{\caption@xref {feedforwardplot}{ on input line 272}}{9}{FeedForward Control}{figure.caption.8}{}}
\@writefile{lof}{\contentsline {figure}{\numberline {8}{\ignorespaces System response to a triangular disturbance input\relax }}{9}{figure.caption.8}}
\@writefile{toc}{\contentsline {subsubsection}{\numberline {2.4.2}Feedback Control}{9}{subsubsection.2.4.2}}
\newlabel{feedback1}{{\caption@xref {feedback1}{ on input line 283}}{9}{Feedback Control}{figure.caption.9}{}}
\@writefile{lof}{\contentsline {figure}{\numberline {9}{\ignorespaces Simulink diagram of a simple feedback model\relax }}{9}{figure.caption.9}}
\newlabel{feedbackplot}{{\caption@xref {feedbackplot}{ on input line 290}}{10}{Feedback Control}{figure.caption.10}{}}
\@writefile{lof}{\contentsline {figure}{\numberline {10}{\ignorespaces Feedback system response to a triangular disturbance input\relax }}{10}{figure.caption.10}}
\@writefile{toc}{\contentsline {subsection}{\numberline {2.5}LQR Controller}{10}{subsection.2.5}}
\newlabel{DCMblock}{{\caption@xref {DCMblock}{ on input line 300}}{11}{LQR Controller}{figure.caption.11}{}}
\@writefile{lof}{\contentsline {figure}{\numberline {11}{\ignorespaces Simulink diagram of the newly augmented DC motor system dynamics\relax }}{11}{figure.caption.11}}
\newlabel{LQR1}{{\caption@xref {LQR1}{ on input line 306}}{11}{LQR Controller}{figure.caption.12}{}}
\@writefile{lof}{\contentsline {figure}{\numberline {12}{\ignorespaces Simulink diagram of a LQR controller\relax }}{11}{figure.caption.12}}
\newlabel{LQR2}{{\caption@xref {LQR2}{ on input line 339}}{12}{LQR Controller}{figure.caption.13}{}}
\@writefile{lof}{\contentsline {figure}{\numberline {13}{\ignorespaces Feedforward, feedback, and LQR system response to a triangular reference and square disturbance input\relax }}{12}{figure.caption.13}}
\@writefile{toc}{\contentsline {subsection}{\numberline {2.6}Mixed-Sensitivity Shaping and $H_\infty $ Control}{12}{subsection.2.6}}
\newlabel{mixsyn}{{\caption@xref {mixsyn}{ on input line 349}}{13}{Mixed-Sensitivity Shaping and $H_\infty $ Control}{figure.caption.14}{}}
\@writefile{lof}{\contentsline {figure}{\numberline {14}{\ignorespaces Mixed-Sensitivity Loop Shaping\relax }}{13}{figure.caption.14}}
\newlabel{hinf1}{{\caption@xref {hinf1}{ on input line 388}}{14}{Mixed-Sensitivity Shaping and $H_\infty $ Control}{figure.caption.15}{}}
\@writefile{lof}{\contentsline {figure}{\numberline {15}{\ignorespaces Augmented, Weighted, $H_\infty $ Control Response to a triangular reference and square disturbance input\relax }}{14}{figure.caption.15}}
\newlabel{hinf2}{{\caption@xref {hinf2}{ on input line 395}}{15}{Mixed-Sensitivity Shaping and $H_\infty $ Control}{figure.caption.16}{}}
\@writefile{lof}{\contentsline {figure}{\numberline {16}{\ignorespaces Comparison of $H_\infty $ Control Response to LQR Control Response\relax }}{15}{figure.caption.16}}
\@writefile{toc}{\contentsline {section}{\numberline {3}Further Work}{15}{section.3}}
\@writefile{toc}{\contentsline {subsection}{\numberline {3.1}Further Work: MPC}{16}{subsection.3.1}}
\newlabel{MPC}{{\caption@xref {MPC}{ on input line 457}}{17}{Further Work: MPC}{figure.caption.17}{}}
\@writefile{lof}{\contentsline {figure}{\numberline {17}{\ignorespaces An attempt at model predictive control\relax }}{17}{figure.caption.17}}
\@writefile{toc}{\contentsline {section}{\numberline {A}MATLAB$^{\text  {$\mathsurround \z@ \mathchar "472$}}$ Code}{17}{appendix.A}}
\@writefile{toc}{\contentsline {subsection}{\numberline {A.1}\lstinline [basicstyle=\fontfamily  {pcr}\selectfont  \relax \fontsize  {9}{11}\selectfont  \abovedisplayskip 8\p@ plus2\p@ minus4\p@ \abovedisplayshortskip \z@ plus\p@ \belowdisplayshortskip 4\p@ plus2\p@ minus2\p@ \def \leftmargin \leftmargini \parsep 4.5\p@ plus2\p@ minus\p@ \topsep 9\p@ plus3\p@ minus5\p@ \itemsep 4.5\p@ plus2\p@ minus\p@ {\leftmargin \leftmargini \topsep 4\p@ plus2\p@ minus2\p@ \parsep 2\p@ plus\p@ minus\p@ \itemsep \parsep }\belowdisplayskip \abovedisplayskip \relax \fontsize  {10}{12}\selectfont  \abovedisplayskip 10\p@ plus2\p@ minus5\p@ \abovedisplayshortskip \z@ plus3\p@ \belowdisplayshortskip 6\p@ plus3\p@ minus3\p@ \def \leftmargin \leftmargini \parsep 4.5\p@ plus2\p@ minus\p@ \topsep 9\p@ plus3\p@ minus5\p@ \itemsep 4.5\p@ plus2\p@ minus\p@ {\leftmargin \leftmargini \topsep 6\p@ plus2\p@ minus2\p@ \parsep 3\p@ plus2\p@ minus\p@ \itemsep \parsep }\belowdisplayskip \abovedisplayskip ]|Test.m|}{17}{subsection.A.1}}
\@writefile{toc}{\contentsline {subsection}{\numberline {A.2}\lstinline [basicstyle=\fontfamily  {pcr}\selectfont  \relax \fontsize  {9}{11}\selectfont  \abovedisplayskip 8\p@ plus2\p@ minus4\p@ \abovedisplayshortskip \z@ plus\p@ \belowdisplayshortskip 4\p@ plus2\p@ minus2\p@ \def \leftmargin \leftmargini \parsep 4.5\p@ plus2\p@ minus\p@ \topsep 9\p@ plus3\p@ minus5\p@ \itemsep 4.5\p@ plus2\p@ minus\p@ {\leftmargin \leftmargini \topsep 4\p@ plus2\p@ minus2\p@ \parsep 2\p@ plus\p@ minus\p@ \itemsep \parsep }\belowdisplayskip \abovedisplayskip \relax \fontsize  {10}{12}\selectfont  \abovedisplayskip 10\p@ plus2\p@ minus5\p@ \abovedisplayshortskip \z@ plus3\p@ \belowdisplayshortskip 6\p@ plus3\p@ minus3\p@ \def \leftmargin \leftmargini \parsep 4.5\p@ plus2\p@ minus\p@ \topsep 9\p@ plus3\p@ minus5\p@ \itemsep 4.5\p@ plus2\p@ minus\p@ {\leftmargin \leftmargini \topsep 6\p@ plus2\p@ minus2\p@ \parsep 3\p@ plus2\p@ minus\p@ \itemsep \parsep }\belowdisplayskip \abovedisplayskip ]|tbalance.m|}{18}{subsection.A.2}}
\@writefile{toc}{\contentsline {subsection}{\numberline {A.3}\lstinline [basicstyle=\fontfamily  {pcr}\selectfont  \relax \fontsize  {9}{11}\selectfont  \abovedisplayskip 8\p@ plus2\p@ minus4\p@ \abovedisplayshortskip \z@ plus\p@ \belowdisplayshortskip 4\p@ plus2\p@ minus2\p@ \def \leftmargin \leftmargini \parsep 4.5\p@ plus2\p@ minus\p@ \topsep 9\p@ plus3\p@ minus5\p@ \itemsep 4.5\p@ plus2\p@ minus\p@ {\leftmargin \leftmargini \topsep 4\p@ plus2\p@ minus2\p@ \parsep 2\p@ plus\p@ minus\p@ \itemsep \parsep }\belowdisplayskip \abovedisplayskip \relax \fontsize  {10}{12}\selectfont  \abovedisplayskip 10\p@ plus2\p@ minus5\p@ \abovedisplayshortskip \z@ plus3\p@ \belowdisplayshortskip 6\p@ plus3\p@ minus3\p@ \def \leftmargin \leftmargini \parsep 4.5\p@ plus2\p@ minus\p@ \topsep 9\p@ plus3\p@ minus5\p@ \itemsep 4.5\p@ plus2\p@ minus\p@ {\leftmargin \leftmargini \topsep 6\p@ plus2\p@ minus2\p@ \parsep 3\p@ plus2\p@ minus\p@ \itemsep \parsep }\belowdisplayskip \abovedisplayskip ]|MotorController.m|}{20}{subsection.A.3}}
\@writefile{toc}{\contentsline {subsection}{\numberline {A.4}\lstinline [basicstyle=\fontfamily  {pcr}\selectfont  \relax \fontsize  {9}{11}\selectfont  \abovedisplayskip 8\p@ plus2\p@ minus4\p@ \abovedisplayshortskip \z@ plus\p@ \belowdisplayshortskip 4\p@ plus2\p@ minus2\p@ \def \leftmargin \leftmargini \parsep 4.5\p@ plus2\p@ minus\p@ \topsep 9\p@ plus3\p@ minus5\p@ \itemsep 4.5\p@ plus2\p@ minus\p@ {\leftmargin \leftmargini \topsep 4\p@ plus2\p@ minus2\p@ \parsep 2\p@ plus\p@ minus\p@ \itemsep \parsep }\belowdisplayskip \abovedisplayskip \relax \fontsize  {10}{12}\selectfont  \abovedisplayskip 10\p@ plus2\p@ minus5\p@ \abovedisplayshortskip \z@ plus3\p@ \belowdisplayshortskip 6\p@ plus3\p@ minus3\p@ \def \leftmargin \leftmargini \parsep 4.5\p@ plus2\p@ minus\p@ \topsep 9\p@ plus3\p@ minus5\p@ \itemsep 4.5\p@ plus2\p@ minus\p@ {\leftmargin \leftmargini \topsep 6\p@ plus2\p@ minus2\p@ \parsep 3\p@ plus2\p@ minus\p@ \itemsep \parsep }\belowdisplayskip \abovedisplayskip ]|MPC|}{25}{subsection.A.4}}
