\relax 
\@writefile{lof}{\contentsline {figure}{\numberline {1}{\ignorespaces Batch Method for $\mathrm  {T}_\mathrm  {s} = 0.01 \mathrm  {s}$ and $\mathrm  {T}_\mathrm  {p} = 0.2$\relax }}{1}}
\@writefile{lof}{\contentsline {figure}{\numberline {2}{\ignorespaces Recursive Method with Augmented Systems\relax }}{3}}
\@writefile{lof}{\contentsline {figure}{\numberline {3}{\ignorespaces Recursive Method with Augmented Systems, $\rho = 1e8$\relax }}{3}}
\@writefile{lof}{\contentsline {figure}{\numberline {4}{\ignorespaces Recursive Method with Augmented Systems, $\rho = 1e-20$\relax }}{4}}
\@writefile{lof}{\contentsline {figure}{\numberline {5}{\ignorespaces Recursive Method with Augmented Systems, $\rho = 1e-200$\relax }}{4}}
\@writefile{lof}{\contentsline {figure}{\numberline {6}{\ignorespaces Recursive Method with Augmented System with Integrator\relax }}{5}}
