\relax 
\@writefile{lof}{\contentsline {figure}{\numberline {1}{\ignorespaces Controller Response\relax }}{8}}
\@writefile{lof}{\contentsline {figure}{\numberline {2}{\ignorespaces Observer Controller Response\relax }}{9}}
\@writefile{lof}{\contentsline {figure}{\numberline {3}{\ignorespaces State-Feedback and Observer Response\relax }}{11}}
\@writefile{lof}{\contentsline {figure}{\numberline {4}{\ignorespaces State-Feedback Response\relax }}{11}}
\@writefile{lof}{\contentsline {figure}{\numberline {5}{\ignorespaces Observer Response\relax }}{12}}
